{
    "data": [
        {
            "id": 1,
            "title": "Exposição de Telas no Museu de Fotografia",
            "description": "Lorem ipsum dolor sit amet, consectetur adipiscing elit. Pellentesque pretium nulla non arcu aliquam rhoncus eu sed leo. Aenean cursus nibh sit amet fringilla sodales. Vestibulum faucibus venenatis tempor. Morbi placerat ac massa id ultricies.",
            "sendAt": "2019-03-07T00:34:35.327Z",
            "image": "https://s3-us-west-2.amazonaws.com/agendaedu-dev/schools/c5c1a933-cdef-4c9b-8a87-490f25c2538d/events/5380/attachments/1550866911-$1-original-poster-agendakids.jpeg",
            "startAt": "2019-07-22T19:01:33.476Z",
            "location": "Fake Street, 1001 - Fortaleza CE"
        },
        {
            "id": 2,
            "title": "Evento 2",
            "description": "Lorem ipsum dolor sit amet, consectetur adipiscing elit. Pellentesque pretium nulla non arcu aliquam rhoncus eu sed leo. Aenean cursus nibh sit amet fringilla sodales. Vestibulum faucibus venenatis tempor. Morbi placerat ac massa id ultricies.",
            "sendAt": "2019-03-08T00:34:35.327Z",
            "image": "",
            "startAt": "2019-07-23T19:01:33.476Z",
            "location": "Fake Street, 1001 - Fortaleza CE"
        }, 
        {
            "id": 3,
            "title": "Evento 3",
            "description": "Lorem ipsum dolor sit amet, consectetur adipiscing elit. Pellentesque pretium nulla non arcu aliquam rhoncus eu sed leo. Aenean cursus nibh sit amet fringilla sodales. Vestibulum faucibus venenatis tempor. Morbi placerat ac massa id ultricies.",
            "sendAt": "2019-03-09T00:34:35.327Z",
            "image": "https://s3-us-west-2.amazonaws.com/agendaedu-dev/schools/c5c1a933-cdef-4c9b-8a87-490f25c2538d/events/5380/attachments/1550866911-$1-original-poster-agendakids.jpeg",
            "startAt": "2019-07-25T19:01:33.476Z",
            "location": "Fake Street, 1001 - Fortaleza CE"
        },
        {
            "id": 4,
            "title": "Evento 4",
            "description": "Lorem ipsum dolor sit amet, consectetur adipiscing elit. Pellentesque pretium nulla non arcu aliquam rhoncus eu sed leo. Aenean cursus nibh sit amet fringilla sodales. Vestibulum faucibus venenatis tempor. Morbi placerat ac massa id ultricies.",
            "sendAt": "2019-06-15T00:34:35.327Z",
            "image": "",
            "startAt": "2019-09-10T19:01:33.476Z",
            "location": "Fake Street, 1001 - Fortaleza CE"
        },
        {
            "id": 5,
            "title": "Evento 5",
            "description": "Lorem ipsum dolor sit amet, consectetur adipiscing elit. Pellentesque pretium nulla non arcu aliquam rhoncus eu sed leo. Aenean cursus nibh sit amet fringilla sodales. Vestibulum faucibus venenatis tempor. Morbi placerat ac massa id ultricies.",
            "sendAt": "2019-06-15T00:34:35.327Z",
            "image": "",
            "startAt": "2019-09-10T19:01:33.476Z",
            "location": "Fake Street, 1001 - Fortaleza CE"
        },
        {
            "id": 6,
            "title": "Evento 6",
            "description": "Lorem ipsum dolor sit amet, consectetur adipiscing elit. Pellentesque pretium nulla non arcu aliquam rhoncus eu sed leo. Aenean cursus nibh sit amet fringilla sodales. Vestibulum faucibus venenatis tempor. Morbi placerat ac massa id ultricies.",
            "sendAt": "2019-06-15T00:34:35.327Z",
            "image": "",
            "startAt": "2019-09-10T19:01:33.476Z",
            "location": "Fake Street, 1001 - Fortaleza CE"
        },
        {
            "id": 7,
            "title": "Evento 7",
            "description": "Lorem ipsum dolor sit amet, consectetur adipiscing elit. Pellentesque pretium nulla non arcu aliquam rhoncus eu sed leo. Aenean cursus nibh sit amet fringilla sodales. Vestibulum faucibus venenatis tempor. Morbi placerat ac massa id ultricies.",
            "sendAt": "2019-03-07T00:34:35.327Z",
            "image": "https://s3-us-west-2.amazonaws.com/agendaedu-dev/schools/c5c1a933-cdef-4c9b-8a87-490f25c2538d/events/5380/attachments/1550866911-$1-original-poster-agendakids.jpeg",
            "startAt": "2019-07-22T19:01:33.476Z",
            "location": "Fake Street, 1001 - Fortaleza CE"
        },
        {
            "id": 8,
            "title": "Evento 8",
            "description": "Lorem ipsum dolor sit amet, consectetur adipiscing elit. Pellentesque pretium nulla non arcu aliquam rhoncus eu sed leo. Aenean cursus nibh sit amet fringilla sodales. Vestibulum faucibus venenatis tempor. Morbi placerat ac massa id ultricies.",
            "sendAt": "2019-03-07T00:34:35.327Z",
            "image": "https://s3-us-west-2.amazonaws.com/agendaedu-dev/schools/c5c1a933-cdef-4c9b-8a87-490f25c2538d/events/5380/attachments/1550866911-$1-original-poster-agendakids.jpeg",
            "startAt": "2019-07-22T19:01:33.476Z",
            "location": "Fake Street, 1001 - Fortaleza CE"
        },
        {
            "id": 9,
            "title": "Evento 9",
            "description": "Lorem ipsum dolor sit amet, consectetur adipiscing elit. Pellentesque pretium nulla non arcu aliquam rhoncus eu sed leo. Aenean cursus nibh sit amet fringilla sodales. Vestibulum faucibus venenatis tempor. Morbi placerat ac massa id ultricies.",
            "sendAt": "2019-03-07T00:34:35.327Z",
            "image": "https://s3-us-west-2.amazonaws.com/agendaedu-dev/schools/c5c1a933-cdef-4c9b-8a87-490f25c2538d/events/5380/attachments/1550866911-$1-original-poster-agendakids.jpeg",
            "startAt": "2019-07-22T19:01:33.476Z",
            "location": "Fake Street, 1001 - Fortaleza CE"
        },
        {
            "id": 10,
            "title": "Evento 10",
            "description": "Lorem ipsum dolor sit amet, consectetur adipiscing elit. Pellentesque pretium nulla non arcu aliquam rhoncus eu sed leo. Aenean cursus nibh sit amet fringilla sodales. Vestibulum faucibus venenatis tempor. Morbi placerat ac massa id ultricies.",
            "sendAt": "2019-03-07T00:34:35.327Z",
            "image": "https://s3-us-west-2.amazonaws.com/agendaedu-dev/schools/c5c1a933-cdef-4c9b-8a87-490f25c2538d/events/5380/attachments/1550866911-$1-original-poster-agendakids.jpeg",
            "startAt": "2019-07-22T19:01:33.476Z",
            "location": "Fake Street, 1001 - Fortaleza CE"
        },
        {
            "id": 11,
            "title": "Evento 11",
            "description": "Lorem ipsum dolor sit amet, consectetur adipiscing elit. Pellentesque pretium nulla non arcu aliquam rhoncus eu sed leo. Aenean cursus nibh sit amet fringilla sodales. Vestibulum faucibus venenatis tempor. Morbi placerat ac massa id ultricies.",
            "sendAt": "2019-03-08T00:34:35.327Z",
            "image": "",
            "startAt": "2019-07-23T19:01:33.476Z",
            "location": "Fake Street, 1001 - Fortaleza CE"
        },
        {
            "id": 12,
            "title": "Evento 12",
            "description": "Lorem ipsum dolor sit amet, consectetur adipiscing elit. Pellentesque pretium nulla non arcu aliquam rhoncus eu sed leo. Aenean cursus nibh sit amet fringilla sodales. Vestibulum faucibus venenatis tempor. Morbi placerat ac massa id ultricies.",
            "sendAt": "2019-03-08T00:34:35.327Z",
            "image": "",
            "startAt": "2019-07-23T19:01:33.476Z",
            "location": "Fake Street, 1001 - Fortaleza CE"
        }
    ],
    "metadata": {
        "page": 1,
        "limit": 2,
        "pre_page": null,
        "next_page": 2,
        "total": 100,
        "total_pages": 50
    }
}

